tufts_AHD_attendance
…
df_ahd_list <- file_list %>>% lapply( func_ahd_tidy )

## `summarise()` has grouped output by 'name'. You can override using the `.groups` argument.
## `summarise()` has grouped output by 'name'. You can override using the `.groups` argument.
## `summarise()` has grouped output by 'name'. You can override using the `.groups` argument.
## `summarise()` has grouped output by 'name'. You can override using the `.groups` argument.

df_ahd_list

## [[1]]
## # A tibble: 27 × 4
##    name     indx t_join              t_leave            
##    <chr>   <dbl> <dttm>              <dttm>             
##  1 Alibay      0 2022-11-04 13:08:22 2022-11-04 13:58:33
##  2 Camelia     0 2022-11-04 13:01:05 2022-11-04 13:03:16
##  3 Camelia     1 2022-11-04 13:03:26 2022-11-04 13:05:08
##  4 Camelia     2 2022-11-04 14:02:11 2022-11-04 16:00:16
##  5 Ehsan       0 2022-11-04 13:16:24 2022-11-04 16:00:09
##  6 Firas       0 2022-11-04 13:04:55 2022-11-04 16:00:24
##  7 Gaby        0 2022-11-04 13:12:33 2022-11-04 13:14:35
##  8 Gaby        1 2022-11-04 13:14:42 2022-11-04 16:00:13
##  9 Ivanna      0 2022-11-04 13:07:23 2022-11-04 13:13:56
## 10 Ivanna      1 2022-11-04 13:39:59 2022-11-04 13:46:55
## # … with 17 more rows
## 
## [[2]]
## # A tibble: 24 × 4
##    name     indx t_join              t_leave            
##    <chr>   <dbl> <dttm>              <dttm>             
##  1 Firas       0 2022-11-11 13:01:53 2022-11-11 13:51:22
##  2 Firas       1 2022-11-11 13:55:16 2022-11-11 14:27:13
##  3 Firas       2 2022-11-11 14:35:00 2022-11-11 16:19:11
##  4 Gaby        0 2022-11-11 13:08:05 2022-11-11 13:38:34
##  5 Gaby        1 2022-11-11 13:38:51 2022-11-11 15:02:41
##  6 Gaby        2 2022-11-11 15:03:29 2022-11-11 16:47:11
##  7 Ivanna      0 2022-11-11 15:06:55 2022-11-11 15:14:31
##  8 Ivanna      1 2022-11-11 15:17:26 2022-11-11 16:47:17
##  9 Manizhe     0 2022-11-11 13:03:12 2022-11-11 13:51:53
## 10 Manizhe     1 2022-11-11 13:57:42 2022-11-11 16:47:09
## # … with 14 more rows
## 
## [[3]]
## # A tibble: 35 × 4
##    name     indx t_join              t_leave            
##    <chr>   <dbl> <dttm>              <dttm>             
##  1 Arsalan     0 2022-11-18 13:24:02 2022-11-18 16:15:28
##  2 Aya         0 2022-11-18 12:58:07 2022-11-18 16:46:10
##  3 Camelia     0 2022-11-18 13:05:12 2022-11-18 14:41:48
##  4 Camelia     1 2022-11-18 15:13:22 2022-11-18 15:26:14
##  5 Ehsan       0 2022-11-18 13:01:22 2022-11-18 13:10:58
##  6 Ehsan       1 2022-11-18 13:11:27 2022-11-18 14:05:52
##  7 Ehsan       2 2022-11-18 14:06:16 2022-11-18 15:23:17
##  8 Ehsan       3 2022-11-18 15:24:04 2022-11-18 15:43:35
##  9 Ehsan       4 2022-11-18 15:44:18 2022-11-18 16:45:58
## 10 Gaby        0 2022-11-18 12:47:34 2022-11-18 13:00:45
## # … with 25 more rows
## 
## [[4]]
## # A tibble: 27 × 4
##    name     indx t_join              t_leave            
##    <chr>   <dbl> <dttm>              <dttm>             
##  1 Arsalan     0 2022-12-02 12:36:52 2022-12-02 16:25:44
##  2 Aya         0 2022-12-02 12:57:24 2022-12-02 16:25:06
##  3 Camelia     0 2022-12-02 13:24:24 2022-12-02 16:25:45
##  4 Firas       0 2022-12-02 13:04:16 2022-12-02 13:13:57
##  5 Firas       1 2022-12-02 13:13:59 2022-12-02 14:32:51
##  6 Firas       2 2022-12-02 14:35:10 2022-12-02 14:38:38
##  7 Firas       3 2022-12-02 14:42:17 2022-12-02 14:46:52
##  8 Firas       4 2022-12-02 15:00:43 2022-12-02 15:10:15
##  9 Firas       5 2022-12-02 15:10:40 2022-12-02 16:25:51
## 10 Ivanna      0 2022-12-02 13:08:37 2022-12-02 13:25:11
## # … with 17 more rows
…
